초반빌드 경우의수
(내가 랜덤일 경우 헌터11시12시등 예외케이스 제외하고)
내종족(3) × 상대종족(4) × 맵(3) = 36가지
 
종족별 빌드 기본컨셉
토스
vs토스 : 질럿조금섞고 사업드라 옵저버 더블넥
vs저그 : 본진플레이 공발업질럿 + 캐논뮤탈방어
vs테란 : 쌩더블
vs랜덤 : 
 
테란
vs토스
vs저그
vs테란
vs랜덤
 
저그
vs토스
vs저그 9발업 성큰러쉬
vs테란
vs랜덤



빌드 경우의수
*프로토스
  질럿 올인(2게이트/3게이트/전진게이트 등) => 가스여부
  질드라
  패스트 다크
  리버드랍
  캐논러쉬?
  
 
*저그
  저글링 올인(4드론 5드론 6드론 9발업 등) => 드론의 갯수, 스포닝풀 완성티이밍 및 저글링 개수, 가스지은,캐는여부 로 파악
  땡히드라 => 히드라리스크덴
  러커 => 히드라리스크덴, 레어타이밍
  뮤탈 => 레어타이밍, 스파이어
  부자 => 12앞마당
  
  
 
*테란
  벙커링
  바이오닉
  메카닉
  레이스
  드랍
 

https://github.com/tscmoo/tsc-bwai/tree/master/src
